ytp_post_event_survey - Yellow Tulip Post Event Survey Analysis - 2022/2023
…
Descriptive Statistics

Descriptive statistics primarily deal with counts. Here we count the number of observations in our particular demographic responses to better understand the composition of our sample size.

Zipcode

df_pe_survey_clean |> 
  count(Zipcode, sort = TRUE)

# A tibble: 21 × 2
   Zipcode     n
   <chr>   <int>
 1 02360       8
 2 06830       8
 3 <NA>        5
 4 01588       3
 5 04090       2
 6 15206       2
 7 01534       1
 8 01584       1
 9 01610       1
10 02332       1
# ℹ 11 more rows
…
